HW3
…
#Word count per term
term_word_counts <- tokens %>%
  count(term, word, sort = TRUE)
#Top 5 most common words per term
top5_q1 <- term_word_counts %>%
  group_by(term) %>%
  slice_max(n, n = 5) %>%
  ungroup()

top5_q1   

# A tibble: 25 × 3
   term            word      n
   <chr>           <chr> <int>
 1 covid           the    9741
 2 covid           of     7668
 3 covid           covid  7275
 4 covid           and    6861
 5 covid           in     4526
 6 cystic fibrosis the    2677
 7 cystic fibrosis of     2304
 8 cystic fibrosis and    1777
 9 cystic fibrosis in     1497
10 cystic fibrosis to     1011
# ℹ 15 more rows
…
top5_q2

# A tibble: 26 × 3
   term            word            n
   <chr>           <chr>       <int>
 1 covid           covid        7275
 2 covid           patients     2293
 3 covid           disease       943
 4 covid           pandemic      800
 5 covid           coronavirus   647
 6 covid           health        647
 7 cystic fibrosis fibrosis      867
 8 cystic fibrosis cystic        862
 9 cystic fibrosis cf            625
10 cystic fibrosis patients      586
# ℹ 16 more rows
…
# Here, "term" acts as the document, and each word's importance is measured by tf-idf
tfidf_data <- tokens_nostop %>%
  count(term, word, sort = TRUE) %>%      
  bind_tf_idf(word, term, n) %>%          
  arrange(desc(tf_idf))
# Top 5 words per term with highest TF-IDF
top5_tfidf <- tfidf_data %>%
  group_by(term) %>%
  slice_max(tf_idf, n = 5) %>%
  ungroup() %>%
  mutate(tf_idf = round(tf_idf, 4))   
top5_tfidf

# A tibble: 25 × 6
   term            word            n      tf   idf tf_idf
   <chr>           <chr>       <int>   <dbl> <dbl>  <dbl>
 1 covid           covid        7275 0.0722  1.61  0.116 
 2 covid           pandemic      800 0.00794 1.61  0.0128
 3 covid           coronavirus   647 0.00642 1.61  0.0103
 4 covid           sars          372 0.00369 1.61  0.0059
 5 covid           cov           334 0.00331 1.61  0.0053
 6 cystic fibrosis cf            625 0.0242  0.916 0.0222
 7 cystic fibrosis fibrosis      867 0.0336  0.511 0.0172
 8 cystic fibrosis cystic        862 0.0334  0.511 0.0171
 9 cystic fibrosis cftr           86 0.00333 1.61  0.0054
10 cystic fibrosis sweat          83 0.00321 1.61  0.0052
# ℹ 15 more rows
…
