Lab 6
…
# ---- Q1: What specialties do we have? ----
q1_counts <- mt_samples %>%
  count(medical_specialty, sort = TRUE)
print(q1_counts)

# A tibble: 40 × 2
   medical_specialty                 n
   <chr>                         <int>
 1 Surgery                        1103
 2 Consult - History and Phy.      516
 3 Cardiovascular / Pulmonary      372
 4 Orthopedic                      355
 5 Radiology                       273
 6 General Medicine                259
 7 Gastroenterology                230
 8 Neurology                       223
 9 SOAP / Chart / Progress Notes   166
10 Obstetrics / Gynecology         160
# ℹ 30 more rows
…
# ---- 6) Top 5 words per specialty (stopwords removed) ----
by_spec_counts <- tokens_clean %>%
  count(medical_specialty, word, sort = TRUE)

top5_per_spec <- by_spec_counts %>%
  group_by(medical_specialty) %>%
  slice_max(n, n = 5, with_ties = FALSE) %>%
  arrange(medical_specialty, desc(n)) %>%
  ungroup()

print(top5_per_spec)

# A tibble: 200 × 3
   medical_specialty    word          n
   <chr>                <chr>     <int>
 1 Allergy / Immunology history      38
 2 Allergy / Immunology noted        23
 3 Allergy / Immunology patient      22
 4 Allergy / Immunology allergies    21
 5 Allergy / Immunology nasal        13
 6 Autopsy              left         83
 7 Autopsy              inch         59
 8 Autopsy              neck         55
 9 Autopsy              anterior     47
10 Autopsy              body         40
# ℹ 190 more rows
…
